[
  {
    "section": "Menu",
    "actions": [
      {
        "name": "Dashboard",
        "route": "admin.client.index",
        "active_route": "admin.client.*",
        "ico": {
          "name": "home"
        }
      },
      {
        "name": "Mail client",
        "route": "settings.mail",
        "active_route": "settings.mail",
        "ico": {
          "name": "mail"
        }
      },
      {
        "name": "Telegram settings",
        "route": "settings.telegram",
        "active_route": "settings.telegram",
        "ico": {
          "name": "smart_toy"
        }
      }
    ]
  },
  {
    "section": "Settings",
    "actions": [
      {
        "name": "Profile",
        "route": "profile.show",
        "active_route": "profile.*",
        "ico": {
          "name": "person"
        }
      }
    ]
  }

]
